<?xml version="1.0" standalone="no"?>
<!DOCTYPE svg PUBLIC "-//W3C//DTD SVG 1.1//EN" "http://www.w3.org/Graphics/SVG/1.1/DTD/svg11.dtd" >
<!--
2013-9-30: Created.
-->
<svg>
<metadata>
Created by iconfont
</metadata>
<defs>

<font id="iconfont" horiz-adv-x="1024" >
  <font-face
    font-family="iconfont"
    font-weight="500"
    font-stretch="normal"
    units-per-em="1024"
    ascent="896"
    descent="-128"
  />
    <missing-glyph />
    
    <glyph glyph-name="cwx" unicode="&#58921;" d="M499.2 546.816c27.136 0 45.056 18.432 45.056 45.056s-18.432 45.056-45.056 45.056c-26.112 0-53.76-16.896-53.76-45.056 0-27.648 28.16-45.056 53.76-45.056z m-195.072 45.056c0 26.624-18.432 45.056-45.056 45.056-26.112 0-53.76-16.896-53.76-45.056 0-27.648 27.648-44.544 53.76-44.544 27.136-0.512 45.056 17.408 45.056 44.544zM1013.76 274.944c0 66.048-29.696 130.048-82.432 179.2-52.736 49.152-122.88 78.848-197.12 85.504v3.584c-31.232 144.896-186.88 254.976-363.008 254.976-199.68 0-360.96-138.752-360.96-309.248 0-90.624 46.08-173.568 134.144-237.568l-30.208-91.136c-2.048-6.656 0-14.336 5.12-18.944 5.632-4.608 12.8-5.632 19.456-2.56l114.688 57.344 13.824-3.072h0.512c35.328-7.168 66.048-13.312 103.936-13.312 7.168 0 34.304 2.56 43.008 6.656 43.52-105.984 160.256-177.664 291.328-177.664 33.28 0 66.56 7.68 100.352 15.872l88.064-47.616c2.56-1.536 5.12-2.048 8.192-2.56 4.096 0 8.192 1.536 11.264 4.096 5.632 4.608 8.192 11.776 6.144 18.944l-22.528 73.728C971.776 130.56 1013.76 203.264 1013.76 274.944z m-156.16-174.592c-6.144-4.096-8.192-11.776-6.144-18.432l12.288-41.984-53.248 28.672c-2.56 1.536-5.12 2.048-8.192 2.56-1.024 0-3.072 0-4.096-0.512-30.72-7.68-62.464-15.872-93.696-15.872-143.36 0-260.096 98.304-260.096 219.648 0 120.832 116.736 219.648 260.096 219.648 140.8 0 259.584-100.352 259.584-219.648 0.512-60.416-36.864-122.368-106.496-174.08z m-669.184 159.744c2.56 7.168-0.512 15.36-6.656 19.456-82.432 57.856-124.416 128-124.416 208.896 0 145.92 140.288 264.192 313.344 264.192 151.04 0 286.208-92.16 315.904-214.016-161.28-3.584-291.328-118.272-291.328-256.512 0-18.432 2.56-37.376 7.68-56.32h-2.56c-9.216-0.512-19.456-1.024-29.696-1.024-33.792 0-62.464 6.144-93.696 12.288l-18.944 3.584c-3.584 0.512-7.68 0-11.264-1.024l-78.336-39.424c0-0.512 19.968 59.904 19.968 59.904z m422.4 128c-18.432 0-36.864-18.432-36.864-36.352s18.432-36.352 36.864-36.352c27.648 0 44.544 18.944 44.544 36.352 0.512 17.408-16.896 36.352-44.544 36.352z m188.416 0c-18.432 0-35.84-18.432-35.84-36.352s17.92-36.352 35.84-36.352c27.648 0 45.056 18.944 45.056 36.352-0.512 17.408-17.408 36.352-45.056 36.352z"  horiz-adv-x="1024" />

    
    <glyph glyph-name="icon-test6" unicode="&#58925;" d="M743.424 386.56l184.32 184.32c62.976 62.976 62.976 164.352 0 227.84l-9.728 6.656c-29.696 29.696-71.68 46.592-113.152 46.592-43.52 0-82.944-16.384-113.152-46.592l-185.856-182.784-202.24 202.752c-25.088 25.088-66.56 25.088-91.648 0l-144.384-144.896c-25.088-25.088-25.088-66.56 0-91.648l202.752-202.752-199.68-199.68c-6.656-5.12-13.312-11.776-14.848-19.968v-1.536l-6.656-209.408c-1.536-9.728 0-18.432 6.656-26.624s14.848-13.312 25.088-13.312c1.536 0 5.12 0 6.656 1.536l202.752 23.04h1.536c5.12 1.536 9.728 5.12 14.848 8.192l201.216 201.216 202.752-204.288c13.312-13.312 29.696-18.432 46.592-18.432 16.384 0 33.28 6.656 46.592 18.432l144.384 144.384c25.088 25.088 25.088 66.56 0 91.648l-204.8 205.312z m-31.232 397.312c25.088 25.088 56.32 38.4 91.648 38.4s66.56-13.312 91.648-38.4l8.192-8.192c49.664-49.664 49.664-133.12 0-182.784l-5.12-5.12-191.488 190.976 5.12 5.12z m-485.376-310.784l97.792 97.792c6.656 6.656 6.656 16.384 0 21.504-6.656 6.656-16.384 6.656-21.504 0l-97.792-97.792-56.32 56.32 97.792 97.792c6.656 6.656 6.656 16.384 0 21.504-6.656 6.656-16.384 6.656-21.504 0l-97.792-97.792-38.4 38.4c-6.656 6.656-9.728 14.848-9.728 23.552 0 8.192 3.584 16.384 9.728 23.552l144.384 144.384c6.656 6.656 14.848 9.728 23.552 9.728 8.192 0 16.384-3.584 23.552-9.728l202.752-202.752-189.44-190.976c-0.512-0.512-67.072 64.512-67.072 64.512z m56.832-501.76l-199.68-21.504h-3.584v1.536l6.656 209.408h1.536L271.36-15.36l12.288-13.312z m21.504 23.04l-11.776 11.776-179.712 179.712 569.856 569.856 192.512-192.512-570.88-568.832c1.536 0 0 0 0 0z m619.52 119.808l-144.384-144.384c-13.312-13.312-34.816-13.312-46.592 0l-34.816 34.816 93.184 93.184c6.656 6.656 6.656 16.384 0 21.504-6.656 6.656-16.384 6.656-21.504 0l-93.184-93.184-58.368 56.32 93.184 93.184c6.656 6.656 6.656 16.384 0 21.504-6.656 6.656-16.384 6.656-21.504 0l-93.184-93.184-68.096 68.096 192.512 192.512 202.752-202.752c6.656-6.656 9.728-14.848 9.728-23.552-1.536-10.752-4.608-19.456-9.728-24.064z"  horiz-adv-x="1024" />

    
    <glyph glyph-name="zhihu1" unicode="&#58917;" d="M2.048 384C2.048 665.1904 230.8096 893.952 512 893.952s509.952-228.7616 509.952-509.952-228.7616-509.952-509.952-509.952S2.048 102.8096 2.048 384z m409.3952-33.1776h121.856c0 28.672-13.5168 45.2608-13.5168 45.2608h-105.6768c2.4576 51.8144 4.7104 118.3744 5.5296 142.9504H520.192s-0.6144 42.5984-11.6736 42.5984H331.776s10.6496 55.5008 24.7808 80.0768c0 0-52.8384 2.8672-70.8608-67.3792s-45.056-112.8448-47.9232-120.6272c-2.8672-7.7824 15.5648-3.6864 23.3472 0 7.7824 3.6864 43.008 16.384 53.248 65.3312h54.6816c0.8192-31.1296 2.8672-126.3616 2.2528-142.9504h-112.4352c-15.9744-11.4688-21.2992-45.2608-21.2992-45.2608h128.6144c-5.3248-35.4304-14.7456-81.1008-27.8528-105.472-20.8896-38.5024-31.9488-73.5232-107.1104-133.9392 0 0-12.288-9.0112 25.8048-5.7344 38.0928 3.2768 74.1376 13.1072 98.9184 62.8736 12.9024 26.0096 26.4192 58.7776 36.864 92.16v-0.2048l105.8816-121.856s13.9264 32.768 3.6864 68.608l-78.6432 87.8592-26.624-19.6608c7.3728 25.8048 12.6976 51.4048 14.336 73.728-0.2048 0 0 1.6384 0 1.6384z m147.456 244.1216v-423.3216h44.4416l18.2272-50.9952 77.2096 50.9952h97.28V594.944H558.8992zM749.568 217.4976h-50.5856l-63.0784-41.7792-14.9504 41.7792h-15.7696V548.864H749.568v-331.3664z"  horiz-adv-x="1024" />

    
    <glyph glyph-name="facebook1" unicode="&#58918;" d="M512 893.952C229.5808 893.952 2.048 666.4192 2.048 384s227.5328-509.952 509.952-509.952 509.952 227.5328 509.952 509.952S794.4192 893.952 512 893.952z m172.6464-290.2016h-62.6688c-15.7696 3.8912-35.2256-3.8912-47.104-15.7696-7.7824-11.6736-11.6736-27.4432-11.6736-43.2128v-74.5472h117.76l-15.7696-117.76H563.2v-302.08h-121.6512V352.6656h-101.9904v117.76h101.9904v90.3168c-3.8912 43.2128 11.6736 82.3296 43.2128 113.664C516.096 701.8496 555.4176 717.6192 594.5344 713.728c27.4432 3.8912 58.7776 0 90.3168-3.8912-0.2048-0.2048-0.2048-106.0864-0.2048-106.0864z"  horiz-adv-x="1024" />

    
    <glyph glyph-name="weixin1" unicode="&#58919;" d="M694.8864 552.96c11.6736 0 23.3472-0.8192 35.0208-2.048C698.368 697.1392 541.9008 805.888 363.3152 805.888 163.6352 805.888 0 669.9008 0 497.0496c0-99.7376 54.4768-181.6576 145.408-245.1456l-36.2496-109.3632 126.976 63.6928c45.4656-9.0112 81.92-18.2272 127.1808-18.2272 11.4688 0 22.7328 0.6144 33.9968 1.4336-7.168 24.3712-11.264 49.7664-11.264 76.1856 0 158.5152 136.192 287.3344 308.8384 287.3344z m-198.0416 105.8816c30.9248 0 56.1152-25.1904 56.1152-56.1152 0-30.9248-25.1904-56.1152-56.1152-56.1152-30.9248 0-56.1152 25.1904-56.1152 56.1152 0 30.9248 25.1904 56.1152 56.1152 56.1152z m-254.1568-113.4592c-30.9248 0-56.1152 25.1904-56.1152 56.1152 0 30.9248 25.1904 56.1152 56.1152 56.1152 30.9248 0 56.1152-25.1904 56.1152-56.1152 0.2048-30.9248-24.9856-56.1152-56.1152-56.1152z m781.1072-276.6848c0 145.2032-145.408 263.5776-308.6336 263.5776-172.8512 0-309.0432-118.3744-309.0432-263.5776 0-145.408 136.192-263.5776 309.0432-263.5776 36.2496 0 72.704 9.216 108.9536 18.2272l99.7376-54.4768-27.2384 90.7264c72.9088 54.6816 127.1808 127.1808 127.1808 209.1008z m-403.456 40.7552c-22.1184 0-39.936 17.8176-39.936 39.936s17.8176 39.936 39.936 39.936 39.936-17.8176 39.936-39.936-17.8176-39.936-39.936-39.936z m199.68-2.4576c-22.1184 0-39.936 17.8176-39.936 39.936s17.8176 39.936 39.936 39.936 39.936-17.8176 39.936-39.936c0-21.9136-17.8176-39.936-39.936-39.936z"  horiz-adv-x="1024" />

    
    <glyph glyph-name="weibo1" unicode="&#58920;" d="M766.5664 398.5408c-14.336 4.5056-24.1664 7.5776-16.7936 27.4432 16.384 43.008 18.0224 80.2816 0.2048 106.9056-33.1776 49.7664-123.6992 47.104-227.7376 1.4336 0 0-32.5632-14.9504-24.3712 12.288 15.9744 54.0672 13.5168 99.328-11.264 125.3376-56.32 59.392-206.2336-2.2528-334.848-137.4208C55.9104 433.3568 0 326.0416 0 233.2672 0 55.7056 216.4736-52.224 428.032-52.224c277.504 0 462.2336 169.5744 462.2336 304.3328 0 81.3056-65.1264 127.3856-123.6992 146.432z m-337.92-387.072c-168.96-17.6128-314.7776 62.8736-325.632 179.4048-11.0592 116.5312 117.1456 225.4848 286.1056 242.8928 168.96 17.6128 314.7776-62.6688 325.632-179.4048 10.8544-116.5312-117.1456-225.4848-286.1056-242.8928z m522.24 711.8848c-66.9696 78.2336-165.888 107.9296-257.024 87.4496-21.0944-4.7104-34.6112-26.624-30.1056-48.7424 4.5056-22.1184 25.1904-36.4544 46.2848-31.5392 64.9216 14.5408 135.168-6.7584 182.8864-62.2592 47.5136-55.5008 60.6208-131.2768 40.1408-197.632-6.5536-21.7088 4.5056-44.6464 25.1904-51.8144 20.48-6.9632 42.5984 4.9152 49.152 26.4192v0.2048c28.4672 93.3888 10.4448 199.8848-56.5248 277.9136M847.872 625.664c-32.5632 38.0928-80.6912 52.4288-125.3376 42.5984-18.2272-4.096-29.696-22.9376-25.8048-41.984 3.8912-19.0464 21.7088-31.3344 39.936-27.2384 21.7088 4.9152 45.2608-2.2528 61.2352-20.6848 15.9744-18.6368 20.2752-44.032 13.5168-66.1504-5.7344-18.6368 3.8912-38.5024 21.7088-44.6464 17.6128-5.9392 36.6592 4.096 42.3936 22.7328 13.7216 45.4656 5.12 97.4848-27.648 135.3728M445.44 344.064c-80.4864 21.9136-171.2128-20.0704-206.2336-94.6176-35.6352-75.9808-1.2288-160.3584 80.0768-187.8016 84.1728-28.4672 183.296 15.1552 217.7024 97.28 34.2016 79.872-8.192 162.4064-91.5456 185.1392z m-61.2352-194.1504c-16.384-27.4432-51.4048-39.5264-77.6192-26.8288-26.0096 12.4928-33.5872 44.2368-17.2032 71.0656 16.1792 26.624 49.9712 38.5024 76.1856 27.0336 26.2144-11.8784 34.6112-43.4176 18.6368-71.2704z m53.8624 72.704c-5.9392-10.6496-19.0464-15.7696-29.2864-11.264-10.0352 4.3008-13.312 16.1792-7.5776 26.624 5.9392 10.4448 18.432 15.36 28.4672 11.264 10.24-3.8912 13.9264-15.9744 8.3968-26.624z"  horiz-adv-x="1024" />

    
    <glyph glyph-name="icon-test4" unicode="&#58923;" d="M707.584 850.944c-69.632 0-139.264-23.1424-194.1504-66.3552C458.752 827.8016 389.12 850.944 319.488 850.944 143.5648 850.944 2.6624 708.1984 2.6624 534.1184c0-102.8096 59.8016-177.5616 127.7952-248.832l-11.6736-10.0352c-19.8656-16.5888-21.504-46.4896-3.2768-66.3552l51.4048-57.9584c8.192-10.0352 21.504-14.9504 34.816-14.9504 11.6736 0 23.1424 4.9152 31.5392 11.6736l46.4896 41.3696c10.0352 8.192 14.9504 19.8656 14.9504 31.5392 0 13.312-3.2768 24.7808-11.6736 33.1776L231.424 311.9104c-8.192 10.0352-21.504 14.9504-34.816 14.9504-11.6736 0-23.1424-4.9152-31.5392-11.6736l-11.6736-10.0352c-64.7168 67.9936-119.3984 137.6256-119.3984 228.9664C34.2016 691.6096 161.792 819.4048 319.488 819.4048c67.9936 0 132.7104-23.1424 184.1152-67.9936 4.9152-4.9152 14.9504-4.9152 19.8656 0 51.4048 43.2128 116.1216 67.9936 184.1152 67.9936 157.4912 0 285.2864-127.7952 285.2864-285.2864 0-96.256-57.9584-165.888-129.4336-240.4352-46.2848-48.128-142.5408-144.384-220.5696-222.4128-13.312 48.128-57.9584 84.5824-112.8448 84.5824-64.7168 0-116.1216-51.4048-116.1216-116.1216s51.4048-116.1216 116.1216-116.1216c61.44 0 112.8448 48.128 116.1216 107.7248 82.944 81.3056 190.6688 189.0304 238.7968 240.4352 72.9088 76.3904 139.264 154.2144 139.264 260.5056C1022.7712 708.1984 881.664 850.944 707.584 850.944zM194.9696 296.96c4.9152 0 8.192-1.6384 11.6736-4.9152l51.4048-57.9584c3.2768-3.2768 3.2768-6.5536 3.2768-11.6736 0-4.9152-1.6384-8.192-4.9152-10.0352L209.92 171.008c-1.6384-3.2768-4.9152-4.9152-10.0352-4.9152-4.9152 0-8.192 1.6384-11.6736 4.9152l-51.4048 57.9584c-4.9152 6.5536-4.9152 16.5888 1.6384 21.504L185.1392 291.84c3.2768 3.4816 6.5536 5.12 9.8304 5.12zM528.384-44.8512c-46.4896 0-84.5824 38.0928-84.5824 84.5824s38.0928 84.5824 84.5824 84.5824 84.5824-38.0928 84.5824-84.5824c1.6384-46.4896-36.4544-84.5824-84.5824-84.5824zM415.744 381.1328c-4.9152-6.7584-1.6384-16.5888 4.9152-21.7088 28.2624-16.5888 60.0064-24.9856 93.3888-24.9856 105.0624 0 188.2112 84.992 188.2112 188.2112S620.544 712.4992 515.6864 712.4992s-189.8496-84.992-189.8496-188.2112c0-28.2624 6.7584-56.7296 18.2272-81.7152 3.2768-8.3968 13.312-11.6736 21.7088-6.7584 8.3968 3.2768 11.6736 13.312 6.7584 21.7088-10.0352 21.7088-14.9504 45.056-14.9504 68.4032 0 86.6304 71.68 158.3104 158.3104 158.3104s158.3104-71.68 158.3104-158.3104-71.68-158.3104-158.3104-158.3104c-26.624 0-54.8864 6.7584-78.2336 20.0704-6.9632 3.4816-16.7936 0-21.9136-6.5536z m11.6736-233.2672c23.3472 45.056 78.2336 63.2832 123.2896 39.936 8.3968-3.2768 16.5888-1.6384 21.7088 6.7584 3.2768 8.3968 1.6384 16.5888-6.7584 21.7088-60.0064 31.744-134.9632 6.7584-164.864-53.248-3.2768-8.3968-1.6384-16.5888 6.7584-21.7088 1.6384-1.6384 4.9152-1.6384 6.7584-1.6384 4.9152-0.2048 9.8304 3.072 13.1072 8.192zM594.1248 244.5312c8.3968-3.2768 16.5888-1.6384 21.7088 6.7584 3.2768 8.3968 1.6384 16.5888-6.7584 21.7088-49.9712 24.9856-106.7008 29.9008-158.3104 13.312-53.248-16.5888-96.6656-53.248-121.6512-103.2192-3.2768-8.3968-1.6384-16.5888 6.7584-21.7088 1.6384-1.6384 4.9152-1.6384 6.7584-1.6384 4.9152 0 11.6736 3.2768 13.312 8.3968 21.7088 41.5744 58.368 73.3184 103.2192 88.2688 44.8512 14.7456 93.184 9.6256 134.9632-11.8784z m6.5536 309.8624c0 33.3824-28.2624 58.368-61.6448 58.368h-58.368c-23.3472 0-38.2976-13.312-38.2976-36.6592v-143.36c0-8.3968 8.3968-14.9504 16.5888-14.9504 8.3968 0 16.5888 6.7584 16.5888 14.9504v63.2832c0-1.6384-18.2272-18.2272-14.9504-18.2272h81.7152c14.9504 0 33.3824 3.2768 33.3824-11.6736v-36.6592c0-8.3968 8.3968-14.9504 16.5888-14.9504 8.3968 0 16.5888 6.7584 16.5888 14.9504v36.6592c0 16.5888-11.6736 31.744-23.3472 41.5744 11.8784 13.312 15.1552 28.2624 15.1552 46.6944z m-119.808-41.5744c-6.7584 0-4.9152 18.2272-4.9152 24.9856v38.2976c0 6.7584-1.6384 3.2768 4.9152 3.2768h58.368c16.5888 0 29.9008-16.5888 29.9008-33.3824s-13.312-33.3824-29.9008-33.3824c-0.2048 0.2048-58.368 0.2048-58.368 0.2048z"  horiz-adv-x="1024" />

    
    <glyph glyph-name="icon-test5" unicode="&#58924;" d="M301.4656 509.1328c-9.0112 3.6864-18.0224 0-21.504-9.0112-14.336-32.3584-21.504-66.3552-21.504-100.5568 0-109.7728 73.728-208.0768 180.0192-240.8448h5.3248c7.168 0 14.336 5.12 16.1792 12.288 1.8432 9.0112-1.8432 17.8176-10.8544 19.6608-91.7504 27.0336-156.672 113.2544-156.672 208.6912 0 30.5152 5.3248 59.392 18.0224 88.2688 3.4816 9.0112-0.2048 17.8176-9.0112 21.504zM139.264 568.32c18.0224 0 22.528 16.384 22.528 36.2496v81.1008c0 17.2032 5.3248 44.032-19.2512 46.2848 7.168 10.8544 11.4688 23.7568 11.4688 37.6832 0 38.0928-30.72 69.0176-68.8128 69.0176S16.384 807.7312 16.384 769.6384c0-13.9264 3.8912-26.8288 10.8544-37.6832C1.8432 728.4736 0 700.6208 0 683.8272v-81.1008C0 584.704 15.1552 568.32 33.1776 568.32H139.264z m-6.144 38.912H34.816V697.344h98.304v-90.112zM85.4016 809.984c22.1184 0 40.3456-18.0224 40.3456-40.3456 0-16.9984-10.6496-31.744-25.6-37.4784H70.8608C55.7056 738.0992 45.056 752.64 45.056 769.6384 45.056 791.9616 63.0784 809.984 85.4016 809.984zM225.6896 761.2416c3.6864 0 7.168 1.8432 9.0112 3.6864 79.2576 59.392 174.6944 90.112 273.6128 90.112 82.7392 0 161.9968-21.504 232.2432-63.0784 7.168-5.3248 18.0224-1.8432 23.3472 5.3248 5.3248 7.168 1.8432 18.0224-5.3248 23.3472-75.5712 45.056-161.9968 68.4032-250.2656 68.4032-106.2912 0-208.896-34.2016-293.4784-97.28-5.3248-5.3248-7.168-16.1792-1.8432-23.3472 3.6864-3.6864 9.216-7.168 12.6976-7.168zM641.6384 572.2112c3.6864-1.8432 7.168-1.8432 10.8544-1.8432 5.3248 0 10.8544 1.8432 12.6976 7.168 5.3248 7.168 3.6864 18.0224-3.6864 23.3472-43.2128 34.2016-97.28 50.3808-151.1424 50.3808s-106.2912-16.1792-149.504-48.5376c-7.168-5.3248-9.0112-16.1792-3.6864-23.3472s16.1792-9.0112 23.3472-3.6864c37.888 27.0336 82.7392 43.2128 129.6384 43.2128 48.7424-1.8432 93.5936-16.1792 131.4816-46.6944zM762.2656 399.7696c0 37.888-7.168 71.8848-23.3472 106.0864-3.6864 9.0112-14.336 12.4928-21.504 7.168-9.0112-3.6864-12.6976-14.5408-7.168-21.7088 12.6976-28.8768 19.8656-59.392 19.8656-91.7504 0-95.4368-61.2352-178.176-152.9856-207.0528-9.0112-3.6864-14.336-12.0832-10.8544-21.0944 0-7.168 7.168-10.4448 14.336-10.4448h5.3248c104.2432 30.5152 176.3328 129.024 176.3328 238.7968zM991.232 685.4656h-0.2048c-9.0112 0-18.2272-7.168-18.2272-16.1792v-36.0448c0-5.3248-3.4816-9.6256-9.0112-9.6256H854.016c-5.3248 0-8.192 4.3008-8.192 9.6256v36.0448c0 9.0112-9.4208 16.1792-18.432 16.1792s-18.432-7.168-18.432-16.1792v-61.2352c0-16.1792 0-19.2512 16.384-19.2512h161.9968c16.1792 0 22.3232 3.072 22.3232 19.2512v61.2352c0 9.0112-9.4208 16.1792-18.432 16.1792zM1019.6992 736.0512l-10.8544 27.2384c1.8432 1.8432-1.8432 5.7344-3.6864 5.7344h-10.8544c9.0112 0 14.336 1.024 14.336 8.192s-5.3248 8.192-14.336 8.192h-174.6944c-7.168 0-14.336-1.024-14.336-8.192s7.168-8.192 14.336-8.192h-9.0112c-3.6864 0-5.3248-5.7344-7.168-9.4208l-9.216-27.2384c0-1.8432-1.8432-3.6864-1.8432-5.5296v-5.3248c-2.048-16.1792 12.6976-25.1904 28.8768-25.1904s28.8768 18.0224 28.8768 36.0448c0-18.0224 5.5296-37.888 28.8768-37.888 23.3472 0 28.8768 19.8656 28.8768 37.888 0-3.6864 1.8432-10.8544 1.8432-10.8544 0-16.1792 12.6976-27.0336 28.8768-27.0336 16.1792 0 25.1904 10.8544 25.1904 27.0336l1.8432 12.6976c0-18.0224 12.6976-36.0448 28.8768-36.0448s28.8768 9.0112 28.8768 25.1904c-0.2048 5.3248-1.8432 9.0112-3.6864 12.6976zM380.5184-47.104C186.1632 10.4448 49.3568 192.3072 49.3568 395.6736c0 32.3584 3.6864 64.7168 10.8544 95.4368 1.8432 9.0112-3.6864 18.0224-12.6976 19.8656-9.0112 1.8432-18.0224-3.6864-19.8656-12.6976-7.168-34.2016-10.8544-68.4032-10.8544-102.6048C16.9984 287.744 51.2 183.7056 117.76 97.28c63.0784-84.5824 152.9856-145.408 252.1088-174.08h5.3248c7.168 0 14.336 4.9152 16.1792 12.0832 1.8432 7.168-3.6864 15.7696-10.8544 17.6128zM963.7888 539.648c-9.0112-1.8432-14.336-10.8544-10.8544-19.8656 10.8544-39.5264 16.1792-82.7392 16.1792-124.3136 0-201.728-129.6384-378.0608-322.1504-439.296-9.0112-3.6864-14.336-13.1072-10.8544-22.1184 1.8432-7.168 9.0112-11.264 16.1792-11.264h5.3248c97.28 30.72 185.344 94.0032 248.4224 176.7424 64.7168 86.4256 97.28 187.392 97.28 295.5264 0 45.056-5.3248 90.112-18.0224 133.3248-3.4816 9.4208-12.4928 13.1072-21.504 11.264zM573.2352-89.088h-124.3136c-9.0112 0-16.1792-7.3728-16.1792-16.384s7.168-16.384 16.1792-16.384h124.3136c9.0112 0 16.1792 7.3728 16.1792 16.384s-7.168 16.384-16.1792 16.384zM612.352 52.6336c0 17.8176-14.5408 32.3584-32.3584 32.3584h-131.8912c-17.8176 0-32.3584-14.5408-32.3584-32.3584v-95.0272c0-17.8176 14.5408-32.3584 32.3584-32.3584h131.8912c17.8176 0 32.3584 14.5408 32.3584 32.3584v95.0272zM575.488-41.984h-124.928v90.112h124.928v-90.112z"  horiz-adv-x="1024" />

    
    <glyph glyph-name="shouji2" unicode="&#58938;" d="M731.934542-128 249.875971-128c-28.521591 0-51.644675 23.123084-51.644675 51.644675L198.231297 818.923053c0 28.521591 23.123084 51.644675 51.644675 51.644675l482.058571 0c28.521591 0 51.644675-23.123084 51.644675-51.644675L783.579217-76.355325C783.610422-104.876916 760.456133-128 731.934542-128L731.934542-128zM490.905257-76.355325c19.003992 0 34.419381 15.415389 34.419381 34.450587s-15.415389 34.450587-34.419381 34.450587-34.450587-15.415389-34.450587-34.450587S471.901265-76.355325 490.905257-76.355325L490.905257-76.355325zM731.934542 767.278379l-17.225293 0L267.101265 767.278379 249.875971 767.278379l0-723.087856 17.225293 0 447.639189 0 17.225293 0L731.965747 767.278379 731.934542 767.278379z"  horiz-adv-x="1024" />

    
    <glyph glyph-name="shouji" unicode="&#58930;" d="M290.816 831.898h442.368v-768H290.816v768zM227.533 768v-768c0-64.102 63.283-128 126.361-128h316.007c63.283 0 126.361 63.898 126.361 128V768c0.205 63.898-63.078 128-126.156 128H354.099c-63.283 0-126.566-64.102-126.566-128zM480.46-31.949C480.46-14.336 494.592 0 512 0s31.54-14.336 31.54-31.949-14.132-31.949-31.54-31.949c-17.408-0.204-31.54 14.132-31.54 31.95z"  horiz-adv-x="1024" />

    
    <glyph glyph-name="dianhua" unicode="&#59068;" d="M512-128C229.6832-128 0 101.6832 0 384S229.6832 896 512 896s512-229.6832 512-512c0-94.8224-26.112-187.4944-75.5712-267.8784-7.8848-12.6976-24.576-16.6912-37.2736-8.9088-12.6976 7.7824-16.6912 24.4736-8.9088 37.2736 44.2368 71.8848 67.584 154.7264 67.584 239.5136 0 252.416-205.4144 457.8304-457.8304 457.8304S54.1696 636.416 54.1696 384 259.584-73.8304 512-73.8304c79.872 0 158.4128 20.8896 227.328 60.3136 13.0048 7.3728 29.4912 2.9696 36.9664-10.0352 7.3728-13.0048 2.9696-29.4912-10.0352-36.9664-77.0048-44.1344-164.9664-67.4816-254.2592-67.4816zM635.5968 126.1568c-8.9088 0-18.0224 1.1264-27.7504 3.3792-197.0176 22.4256-345.3952 188.1088-345.3952 386.3552 0 69.4272 56.5248 125.952 125.952 125.952s125.952-56.5248 125.952-125.952c0-36.2496-15.9744-70.5536-43.008-94.208 17.3056-32.8704 43.4176-60.416 75.776-79.7696 23.3472 23.04 54.9888 36.2496 88.3712 36.2496 69.4272 0 125.952-56.5248 125.952-125.952s-56.4224-126.0544-125.8496-126.0544zM388.4032 587.6736c-39.6288 0-71.7824-32.256-71.7824-71.7824 0-171.008 128.512-314.0608 298.8032-332.6976l3.3792-0.6144c6.2464-1.536 11.776-2.2528 16.7936-2.2528 39.6288 0 71.7824 32.1536 71.7824 71.7824 0 39.6288-32.256 71.7824-71.7824 71.7824-23.7568 0-45.9776-11.776-59.392-31.5392L563.2 273.3056l-20.8896 9.8304c-59.6992 28.16-105.7792 76.9024-129.8432 137.3184l-8.704 21.8112 20.2752 11.776c22.6304 13.1072 36.2496 36.2496 36.2496 61.8496-0.1024 39.5264-32.3584 71.7824-71.8848 71.7824z"  horiz-adv-x="1024" />

    
    <glyph glyph-name="jiantou-copy1" unicode="&#58903;" d="M533.018-7.76c12.499-12.499 12.499-32.755 0-45.253v0c-12.499-12.499-32.755-12.499-45.253 0l-316.781 316.781c-12.499 12.499-12.499 32.755 0 45.253v0c12.499 12.499 32.755 12.499 45.253 0l316.781-316.781zM807.763 309.021c12.499 12.499 32.755 12.499 45.253 0v0c12.499-12.499 12.499-32.755 0-45.253l-316.781-316.781c-12.499-12.499-32.755-12.499-45.253 0v0c-12.499 12.499-12.499 32.755 0 45.253l316.781 316.781z"  horiz-adv-x="1024" />

    
    <glyph glyph-name="202-copy" unicode="&#58884;" d="M863.279 216.377c0.001-7.953-3.072-15.9-9.195-21.911-12.1-11.877-31.536-11.695-43.413 0.405l-303.706 309.436-312.71-312.709c-11.988-11.989-31.426-11.989-43.415 0-11.989 11.988-11.989 31.427 0 43.415l334.621 334.621c5.792 5.793 13.66 9.030 21.852 8.992 8.192-0.039 16.028-3.348 21.767-9.195l325.411-331.551c5.865-5.975 8.789-13.742 8.789-21.502z"  horiz-adv-x="1024" />

    
    <glyph glyph-name="jiantou6" unicode="&#58922;" d="M376.237 362.982c-12.499-12.499-32.755-12.499-45.253 0v0c-12.499 12.499-12.499 32.755 0 45.253l316.781 316.781c12.499 12.499 32.755 12.499 45.253 0v0c12.499-12.499 12.499-32.755 0-45.253l-316.781-316.781zM693.018 88.237c12.499-12.499 12.499-32.755 0-45.253v0c-12.499-12.499-32.755-12.499-45.253 0l-316.781 316.781c-12.499 12.499-12.499 32.755 0 45.253v0c12.499 12.499 32.755 12.499 45.253 0l316.781-316.781z"  horiz-adv-x="1024" />

    
    <glyph glyph-name="jiantou7" unicode="&#58887;" d="M647.763 405.018c12.499 12.499 32.755 12.499 45.253 0v0c12.499-12.499 12.499-32.755 0-45.253l-316.781-316.781c-12.499-12.499-32.755-12.499-45.253 0v0c-12.499 12.499-12.499 32.755 0 45.253l316.781 316.781zM330.982 679.763c-12.499 12.499-12.499 32.755 0 45.253v0c12.499 12.499 32.755 12.499 45.253 0l316.781-316.781c12.499-12.499 12.499-32.755 0-45.253v0c-12.499-12.499-32.755-12.499-45.253 0l-316.781 316.781z"  horiz-adv-x="1024" />

    


  </font>
</defs></svg>
